<?xml version="1.0" encoding="UTF-8" standalone="no"?>
<!-- Created with Inkscape (http://www.inkscape.org/) -->

<svg
   xmlns:dc="http://purl.org/dc/elements/1.1/"
   xmlns:cc="http://creativecommons.org/ns#"
   xmlns:rdf="http://www.w3.org/1999/02/22-rdf-syntax-ns#"
   xmlns:svg="http://www.w3.org/2000/svg"
   xmlns="http://www.w3.org/2000/svg"
   xmlns:sodipodi="http://sodipodi.sourceforge.net/DTD/sodipodi-0.dtd"
   xmlns:inkscape="http://www.inkscape.org/namespaces/inkscape"
   width="254.84149mm"
   height="68.327393mm"
   viewBox="0 0 254.84149 68.327393"
   version="1.1"
   id="svg8"
   inkscape:version="0.92.1 r15371"
   sodipodi:docname="transport_simple.svg">
  <defs
     id="defs2">
    <marker
       inkscape:stockid="Arrow2Lstart"
       orient="auto"
       refY="0"
       refX="0"
       id="Arrow2Lstart"
       style="overflow:visible"
       inkscape:isstock="true">
      <path
         id="path4618"
         style="fill:#000000;fill-opacity:1;fill-rule:evenodd;stroke:#000000;stroke-width:0.625;stroke-linejoin:round;stroke-opacity:1"
         d="M 8.7185878,4.0337352 -2.2072895,0.01601326 8.7185884,-4.0017078 c -1.7454984,2.3720609 -1.7354408,5.6174519 -6e-7,8.035443 z"
         transform="matrix(1.1,0,0,1.1,1.1,0)"
         inkscape:connector-curvature="0" />
    </marker>
    <marker
       inkscape:stockid="Arrow2Lstart"
       orient="auto"
       refY="0"
       refX="0"
       id="Arrow2Lstart-0"
       style="overflow:visible"
       inkscape:isstock="true">
      <path
         inkscape:connector-curvature="0"
         id="path4618-6"
         style="fill:#000000;fill-opacity:1;fill-rule:evenodd;stroke:#000000;stroke-width:0.625;stroke-linejoin:round;stroke-opacity:1"
         d="M 8.7185878,4.0337352 -2.2072895,0.01601326 8.7185884,-4.0017078 c -1.7454984,2.3720609 -1.7354408,5.6174519 -6e-7,8.035443 z"
         transform="matrix(1.1,0,0,1.1,1.1,0)" />
    </marker>
  </defs>
  <sodipodi:namedview
     id="base"
     pagecolor="#ffffff"
     bordercolor="#666666"
     borderopacity="1.0"
     inkscape:pageopacity="0.0"
     inkscape:pageshadow="2"
     inkscape:zoom="0.98994949"
     inkscape:cx="607.81734"
     inkscape:cy="-82.847296"
     inkscape:document-units="mm"
     inkscape:current-layer="layer1"
     showgrid="false"
     fit-margin-top="0"
     fit-margin-left="0"
     fit-margin-right="0"
     fit-margin-bottom="0"
     inkscape:window-width="1920"
     inkscape:window-height="1183"
     inkscape:window-x="0"
     inkscape:window-y="17"
     inkscape:window-maximized="1" />
  <metadata
     id="metadata5">
    <rdf:RDF>
      <cc:Work
         rdf:about="">
        <dc:format>image/svg+xml</dc:format>
        <dc:type
           rdf:resource="http://purl.org/dc/dcmitype/StillImage" />
        <dc:title></dc:title>
      </cc:Work>
    </rdf:RDF>
  </metadata>
  <g
     inkscape:label="Layer 1"
     inkscape:groupmode="layer"
     id="layer1"
     transform="translate(1.3363476,-28.637586)">
    <g
       id="g5558"
       transform="translate(0,-0.393212)">
      <rect
         y="48.706608"
         x="-1.3363476"
         height="15.768902"
         width="104.50238"
         id="rect4504"
         style="opacity:1;vector-effect:none;fill:#ffd42a;fill-opacity:0.25177307;stroke:none;stroke-width:0.26499999;stroke-linecap:round;stroke-linejoin:miter;stroke-miterlimit:4;stroke-dasharray:0.265, 0.265;stroke-dashoffset:0;stroke-opacity:1" />
      <path
         inkscape:connector-curvature="0"
         id="path4522"
         d="M -1.3363476,48.706608 H 103.16603"
         style="opacity:1;fill:none;fill-rule:evenodd;stroke:#ff6600;stroke-width:0.26458332px;stroke-linecap:butt;stroke-linejoin:miter;stroke-opacity:1" />
      <path
         inkscape:connector-curvature="0"
         id="path4524"
         d="M 103.16603,64.47551 H -1.3363476"
         style="opacity:1;fill:none;fill-rule:evenodd;stroke:#ff6600;stroke-width:0.26458332px;stroke-linecap:butt;stroke-linejoin:miter;stroke-opacity:1" />
    </g>
    <g
       id="g5576"
       transform="translate(0,1.2772213)">
      <ellipse
         ry="25.256971"
         rx="9.7553377"
         cy="54.720173"
         cx="38.085907"
         id="path4485"
         style="opacity:1;vector-effect:none;fill:#2ca02c;fill-opacity:1;stroke:#447821;stroke-width:0.86500001;stroke-linecap:round;stroke-linejoin:miter;stroke-miterlimit:4;stroke-dasharray:none;stroke-dashoffset:0;stroke-opacity:1" />
      <ellipse
         ry="25.256971"
         rx="9.7553377"
         cy="55.121078"
         cx="62.808338"
         id="path4485-5"
         style="opacity:1;vector-effect:none;fill:#2ca02c;fill-opacity:1;stroke:#447821;stroke-width:0.86500001;stroke-linecap:round;stroke-linejoin:miter;stroke-miterlimit:4;stroke-dasharray:none;stroke-dashoffset:0;stroke-opacity:1" />
    </g>
    <text
       xml:space="preserve"
       style="font-style:normal;font-weight:normal;font-size:10.58333302px;line-height:23.28333282px;font-family:Sans;letter-spacing:0px;word-spacing:0px;fill:#000000;fill-opacity:1;stroke:none;stroke-width:0.26458332px;stroke-linecap:butt;stroke-linejoin:miter;stroke-opacity:1"
       x="32.339611"
       y="96.815117"
       id="text4528"><tspan
         sodipodi:role="line"
         id="tspan4526"
         x="32.339611"
         y="96.815117"
         style="stroke-width:0.26458332px">Ouvert</tspan></text>
    <g
       id="g5553">
      <rect
         y="48.3134"
         x="149.00276"
         height="15.768902"
         width="104.50238"
         id="rect4504-3"
         style="opacity:1;vector-effect:none;fill:#ffd42a;fill-opacity:0.25177307;stroke:none;stroke-width:0.26499999;stroke-linecap:round;stroke-linejoin:miter;stroke-miterlimit:4;stroke-dasharray:0.265, 0.265;stroke-dashoffset:0;stroke-opacity:1" />
      <path
         inkscape:connector-curvature="0"
         id="path4522-6"
         d="M 149.00277,48.313392 H 253.50515"
         style="opacity:1;fill:none;fill-rule:evenodd;stroke:#ff6600;stroke-width:0.26458332px;stroke-linecap:butt;stroke-linejoin:miter;stroke-opacity:1" />
      <path
         inkscape:connector-curvature="0"
         id="path4524-1"
         d="M 253.50515,64.082302 H 149.00277"
         style="opacity:1;fill:none;fill-rule:evenodd;stroke:#ff6600;stroke-width:0.26458332px;stroke-linecap:butt;stroke-linejoin:miter;stroke-opacity:1" />
    </g>
    <text
       xml:space="preserve"
       style="font-style:normal;font-weight:normal;font-size:10.58333302px;line-height:23.28333282px;font-family:Sans;letter-spacing:0px;word-spacing:0px;fill:#000000;fill-opacity:1;stroke:none;stroke-width:0.26458332px;stroke-linecap:butt;stroke-linejoin:miter;stroke-opacity:1"
       x="182.67873"
       y="97.12001"
       id="text4528-3"><tspan
         sodipodi:role="line"
         id="tspan4526-2"
         x="182.67873"
         y="97.12001"
         style="stroke-width:0.26458332px">Fermé</tspan></text>
    <g
       id="g5572"
       transform="translate(0,1.870888)">
      <path
         inkscape:connector-curvature="0"
         id="path4485-0"
         d="m 188.42485,29.070086 a 9.7553377,25.256971 0 0 0 -9.75496,25.256854 9.7553377,25.256971 0 0 0 9.75496,25.256855 9.7553377,25.256971 0 0 0 7.06831,-7.892539 4.4099469,3.3408688 0 0 0 0.0145,5.16e-4 4.4099469,3.3408688 0 0 0 4.41007,-3.340881 4.4099469,3.3408688 0 0 0 -2.71353,-3.083017 9.7553377,25.256971 0 0 0 0.97617,-10.940934 9.7553377,25.256971 0 0 0 -9.75548,-25.256854 z"
         style="opacity:1;vector-effect:none;fill:#2ca02c;fill-opacity:1;stroke:#447821;stroke-width:0.86500001;stroke-linecap:round;stroke-linejoin:miter;stroke-miterlimit:4;stroke-dasharray:none;stroke-dashoffset:0;stroke-opacity:1" />
      <path
         id="path4485-0-1"
         d="m 211.85858,29.070122 a 9.7553378,25.256971 0 0 1 9.75496,25.25686 9.7553378,25.256971 0 0 1 -9.75496,25.25685 9.7553378,25.256971 0 0 1 -7.0683,-7.89254 4.4099469,3.3408689 0 0 1 -0.0145,5.3e-4 4.4099469,3.3408689 0 0 1 -4.41007,-3.34088 4.4099469,3.3408689 0 0 1 2.71353,-3.08302 9.7553378,25.256971 0 0 1 -0.97617,-10.94093 9.7553378,25.256971 0 0 1 9.75548,-25.25686 z"
         style="opacity:1;vector-effect:none;fill:#2ca02c;fill-opacity:1;stroke:#447821;stroke-width:0.86500001;stroke-linecap:round;stroke-linejoin:miter;stroke-miterlimit:4;stroke-dasharray:none;stroke-dashoffset:0;stroke-opacity:1"
         inkscape:connector-curvature="0" />
    </g>
    <g
       id="g5568"
       transform="translate(0,-0.384405)">
      <path
         inkscape:connector-curvature="0"
         id="path4598"
         d="m 109.58051,51.112034 h 34.2105"
         style="fill:none;fill-rule:evenodd;stroke:#000000;stroke-width:1;stroke-linecap:butt;stroke-linejoin:miter;stroke-miterlimit:4;stroke-dasharray:none;stroke-opacity:1;marker-start:url(#Arrow2Lstart)" />
      <path
         inkscape:connector-curvature="0"
         id="path4598-1"
         d="m 144.02423,62.05247 h -34.2105"
         style="fill:none;fill-rule:evenodd;stroke:#000000;stroke-width:1;stroke-linecap:butt;stroke-linejoin:miter;stroke-miterlimit:4;stroke-dasharray:none;stroke-opacity:1;marker-start:url(#Arrow2Lstart-0)" />
    </g>
  </g>
</svg>
